{
	"info": {
		"_postman_id": "23e2f389-48e1-4045-8c02-ca3a126c47a3",
		"name": "Supabase Test",
		"schema": "https://schema.getpostman.com/json/collection/v2.1.0/collection.json",
		"_exporter_id": "24878274"
	},
	"item": [
		{
			"name": "Read all rows",
			"request": {
				"method": "GET",
				"header": [
					{
						"key": "apikey",
						"value": "eyJhbGciOiJIUzI1NiIsInR5cCI6IkpXVCJ9.eyJpc3MiOiJzdXBhYmFzZSIsInJlZiI6Im14cmp3Y2JpbGtiaGx0dmF2Y3FkIiwicm9sZSI6ImFub24iLCJpYXQiOjE2NzIwNjcwMzMsImV4cCI6MTk4NzY0MzAzM30.qAOSBqvLEhTaXRotR5pjWmiTz57okzapOGtUoTU5ACE",
						"type": "text"
					}
				],
				"url": {
					"raw": "https://mxrjwcbilkbhltvavcqd.supabase.co/rest/v1/items?select=*",
					"protocol": "https",
					"host": [
						"mxrjwcbilkbhltvavcqd",
						"supabase",
						"co"
					],
					"path": [
						"rest",
						"v1",
						"items"
					],
					"query": [
						{
							"key": "select",
							"value": "*"
						}
					]
				}
			},
			"response": []
		},
		{
			"name": "Insert a new row",
			"request": {
				"auth": {
					"type": "bearer",
					"bearer": [
						{
							"key": "token",
							"value": "eyJhbGciOiJIUzI1NiIsInR5cCI6IkpXVCJ9.eyJpc3MiOiJzdXBhYmFzZSIsInJlZiI6Im14cmp3Y2JpbGtiaGx0dmF2Y3FkIiwicm9sZSI6InNlcnZpY2Vfcm9sZSIsImlhdCI6MTY3MjA2NzAzMywiZXhwIjoxOTg3NjQzMDMzfQ.hLAI7sHXZO9YM-d7OcTDT6UK3bD3-Iy3TdMVR31hZmM",
							"type": "string"
						}
					]
				},
				"method": "POST",
				"header": [
					{
						"key": "apikey",
						"value": "eyJhbGciOiJIUzI1NiIsInR5cCI6IkpXVCJ9.eyJpc3MiOiJzdXBhYmFzZSIsInJlZiI6Im14cmp3Y2JpbGtiaGx0dmF2Y3FkIiwicm9sZSI6InNlcnZpY2Vfcm9sZSIsImlhdCI6MTY3MjA2NzAzMywiZXhwIjoxOTg3NjQzMDMzfQ.hLAI7sHXZO9YM-d7OcTDT6UK3bD3-Iy3TdMVR31hZmM",
						"type": "text"
					},
					{
						"warning": "This is a duplicate header and will be overridden by the Content-Type header generated by Postman.",
						"key": "Content-Type",
						"value": "application/json",
						"type": "text"
					}
				],
				"body": {
					"mode": "urlencoded",
					"urlencoded": [
						{
							"key": "name",
							"value": "Item I don't know",
							"type": "text"
						}
					]
				},
				"url": {
					"raw": "https://mxrjwcbilkbhltvavcqd.supabase.co/rest/v1/items",
					"protocol": "https",
					"host": [
						"mxrjwcbilkbhltvavcqd",
						"supabase",
						"co"
					],
					"path": [
						"rest",
						"v1",
						"items"
					]
				}
			},
			"response": []
		},
		{
			"name": "Delete a row",
			"request": {
				"auth": {
					"type": "bearer",
					"bearer": [
						{
							"key": "token",
							"value": "eyJhbGciOiJIUzI1NiIsInR5cCI6IkpXVCJ9.eyJpc3MiOiJzdXBhYmFzZSIsInJlZiI6Im14cmp3Y2JpbGtiaGx0dmF2Y3FkIiwicm9sZSI6InNlcnZpY2Vfcm9sZSIsImlhdCI6MTY3MjA2NzAzMywiZXhwIjoxOTg3NjQzMDMzfQ.hLAI7sHXZO9YM-d7OcTDT6UK3bD3-Iy3TdMVR31hZmM",
							"type": "string"
						}
					]
				},
				"method": "DELETE",
				"header": [
					{
						"key": "apikey",
						"value": "eyJhbGciOiJIUzI1NiIsInR5cCI6IkpXVCJ9.eyJpc3MiOiJzdXBhYmFzZSIsInJlZiI6Im14cmp3Y2JpbGtiaGx0dmF2Y3FkIiwicm9sZSI6InNlcnZpY2Vfcm9sZSIsImlhdCI6MTY3MjA2NzAzMywiZXhwIjoxOTg3NjQzMDMzfQ.hLAI7sHXZO9YM-d7OcTDT6UK3bD3-Iy3TdMVR31hZmM",
						"type": "text"
					}
				],
				"url": {
					"raw": "https://mxrjwcbilkbhltvavcqd.supabase.co/rest/v1/items?id=eq.1",
					"protocol": "https",
					"host": [
						"mxrjwcbilkbhltvavcqd",
						"supabase",
						"co"
					],
					"path": [
						"rest",
						"v1",
						"items"
					],
					"query": [
						{
							"key": "id",
							"value": "eq.1"
						}
					]
				}
			},
			"response": []
		},
		{
			"name": "Update a row",
			"request": {
				"auth": {
					"type": "bearer",
					"bearer": [
						{
							"key": "token",
							"value": "eyJhbGciOiJIUzI1NiIsInR5cCI6IkpXVCJ9.eyJpc3MiOiJzdXBhYmFzZSIsInJlZiI6Im14cmp3Y2JpbGtiaGx0dmF2Y3FkIiwicm9sZSI6InNlcnZpY2Vfcm9sZSIsImlhdCI6MTY3MjA2NzAzMywiZXhwIjoxOTg3NjQzMDMzfQ.hLAI7sHXZO9YM-d7OcTDT6UK3bD3-Iy3TdMVR31hZmM",
							"type": "string"
						}
					]
				},
				"method": "PATCH",
				"header": [
					{
						"key": "apikey",
						"value": "eyJhbGciOiJIUzI1NiIsInR5cCI6IkpXVCJ9.eyJpc3MiOiJzdXBhYmFzZSIsInJlZiI6Im14cmp3Y2JpbGtiaGx0dmF2Y3FkIiwicm9sZSI6InNlcnZpY2Vfcm9sZSIsImlhdCI6MTY3MjA2NzAzMywiZXhwIjoxOTg3NjQzMDMzfQ.hLAI7sHXZO9YM-d7OcTDT6UK3bD3-Iy3TdMVR31hZmM",
						"type": "text"
					},
					{
						"key": "Content-Type",
						"value": "application/json",
						"type": "text"
					}
				],
				"body": {
					"mode": "urlencoded",
					"urlencoded": [
						{
							"key": "name",
							"value": "Item eight",
							"type": "text"
						}
					]
				},
				"url": {
					"raw": "https://mxrjwcbilkbhltvavcqd.supabase.co/rest/v1/items?id=eq.7",
					"protocol": "https",
					"host": [
						"mxrjwcbilkbhltvavcqd",
						"supabase",
						"co"
					],
					"path": [
						"rest",
						"v1",
						"items"
					],
					"query": [
						{
							"key": "id",
							"value": "eq.7"
						}
					]
				}
			},
			"response": []
		}
	]
}